^E:\VS_2010_PROJECTS\KURS_SRV\KURS_SRV\STDAFX.CPP
E:\VS_2010_PROJECTS\KURS_SRV\KURS_SRV\DEBUG\KURS_SRV.PCH
E:\VS_2010_PROJECTS\KURS_SRV\KURS_SRV\DEBUG\STDAFX.OBJ
E:\VS_2010_PROJECTS\KURS_SRV\KURS_SRV\DEBUG\VC100.PDB
^E:\VS_2010_PROJECTS\KURS_SRV\KURS_SRV\ASSEMBLYINFO.CPP|E:\VS_2010_PROJECTS\KURS_SRV\KURS_SRV\FRMTASKTZ.CPP|E:\VS_2010_PROJECTS\KURS_SRV\KURS_SRV\KURS_SRV.CPP
E:\VS_2010_PROJECTS\KURS_SRV\KURS_SRV\DEBUG\KURS_SRV.OBJ
E:\VS_2010_PROJECTS\KURS_SRV\KURS_SRV\DEBUG\FRMTASKTZ.OBJ
E:\VS_2010_PROJECTS\KURS_SRV\KURS_SRV\DEBUG\ASSEMBLYINFO.OBJ
^E:\VS_2010_PROJECTS\KURS_SRV\KURS_SRV\ASSEMBLYINFO.CPP
E:\VS_2010_PROJECTS\KURS_SRV\KURS_SRV\DEBUG\VC100.PDB
^E:\VS_2010_PROJECTS\KURS_SRV\KURS_SRV\FRMTASKTZ.CPP
E:\VS_2010_PROJECTS\KURS_SRV\KURS_SRV\DEBUG\VC100.PDB
^E:\VS_2010_PROJECTS\KURS_SRV\KURS_SRV\FUNCTIONS.CPP|E:\VS_2010_PROJECTS\KURS_SRV\KURS_SRV\KURS_SRV.CPP
E:\VS_2010_PROJECTS\KURS_SRV\KURS_SRV\DEBUG\KURS_SRV.OBJ
E:\VS_2010_PROJECTS\KURS_SRV\KURS_SRV\DEBUG\FUNCTIONS.OBJ
^E:\VS_2010_PROJECTS\KURS_SRV\KURS_SRV\FUNCTIONS.CPP
E:\VS_2010_PROJECTS\KURS_SRV\KURS_SRV\DEBUG\VC100.PDB
^C:\USERS\ARION\APPDATA\LOCAL\TEMP\.NETFRAMEWORK,VERSION=V4.0.ASSEMBLYATTRIBUTES.CPP
E:\VS_2010_PROJECTS\KURS_SRV\KURS_SRV\DEBUG\.NETFRAMEWORK,VERSION=V4.0.ASSEMBLYATTRIBUTES.OBJ
E:\VS_2010_PROJECTS\KURS_SRV\KURS_SRV\DEBUG\VC100.PDB
^E:\VS_2010_PROJECTS\KURS_SRV\KURS_SRV\KURS_SRV.CPP
E:\VS_2010_PROJECTS\KURS_SRV\KURS_SRV\DEBUG\KURS_SRV.OBJ
E:\VS_2010_PROJECTS\KURS_SRV\KURS_SRV\DEBUG\VC100.PDB
