^E:\VS_2010_PROJECTS\KURS_SRV\KURS_SRV\DEBUG\.NETFRAMEWORK,VERSION=V4.0.ASSEMBLYATTRIBUTES.OBJ|E:\VS_2010_PROJECTS\KURS_SRV\KURS_SRV\DEBUG\APP.RES|E:\VS_2010_PROJECTS\KURS_SRV\KURS_SRV\DEBUG\ASSEMBLYINFO.OBJ|E:\VS_2010_PROJECTS\KURS_SRV\KURS_SRV\DEBUG\FRMTASKTZ.OBJ|E:\VS_2010_PROJECTS\KURS_SRV\KURS_SRV\DEBUG\FUNCTIONS.OBJ|E:\VS_2010_PROJECTS\KURS_SRV\KURS_SRV\DEBUG\KURS_SRV.OBJ|E:\VS_2010_PROJECTS\KURS_SRV\KURS_SRV\DEBUG\STDAFX.OBJ
/ERRORREPORT:PROMPT /OUT:"E:\VS_2010_Projects\kurs_srv\Debug\kurs_srv.exe" /INCREMENTAL /NOLOGO /ASSEMBLYRESOURCE:Debug\kurs_srv.frmMain.resources /ASSEMBLYRESOURCE:Debug\kurs_srv.frmTaskTZ.resources /MANIFEST /ManifestFile:"Debug\kurs_srv.exe.intermediate.manifest" /MANIFESTUAC:"level='asInvoker' uiAccess='false'" /DEBUG /PDB:"E:\VS_2010_Projects\kurs_srv\Debug\kurs_srv.pdb" /ASSEMBLYDEBUG /SUBSYSTEM:WINDOWS /TLBID:1 /ENTRY:"main" /DYNAMICBASE /FIXED:NO /NXCOMPAT /MACHINE:X86 Debug\app.res
Debug\AssemblyInfo.obj
Debug\frmTaskTZ.obj
Debug\Functions.obj
Debug\kurs_srv.obj
Debug\stdafx.obj
"Debug\.NETFramework,Version=v4.0.AssemblyAttributes.obj"
