^E:\VS_2010_PROJECTS\KURS_SRV\KURS_SRV\DEBUG\.NETFRAMEWORK,VERSION=V4.0.ASSEMBLYATTRIBUTES.OBJ|E:\VS_2010_PROJECTS\KURS_SRV\KURS_SRV\DEBUG\APP.RES|E:\VS_2010_PROJECTS\KURS_SRV\KURS_SRV\DEBUG\ASSEMBLYINFO.OBJ|E:\VS_2010_PROJECTS\KURS_SRV\KURS_SRV\DEBUG\FRMTASKTZ.OBJ|E:\VS_2010_PROJECTS\KURS_SRV\KURS_SRV\DEBUG\FUNCTIONS.OBJ|E:\VS_2010_PROJECTS\KURS_SRV\KURS_SRV\DEBUG\KURS_SRV.OBJ|E:\VS_2010_PROJECTS\KURS_SRV\KURS_SRV\DEBUG\STDAFX.OBJ
E:\VS_2010_PROJECTS\KURS_SRV\KURS_SRV\DEBUG\APP.RES
E:\VS_2010_PROJECTS\KURS_SRV\KURS_SRV\DEBUG\ASSEMBLYINFO.OBJ
E:\VS_2010_PROJECTS\KURS_SRV\KURS_SRV\DEBUG\FRMTASKTZ.OBJ
E:\VS_2010_PROJECTS\KURS_SRV\KURS_SRV\DEBUG\FUNCTIONS.OBJ
E:\VS_2010_PROJECTS\KURS_SRV\KURS_SRV\DEBUG\KURS_SRV.OBJ
E:\VS_2010_PROJECTS\KURS_SRV\KURS_SRV\DEBUG\STDAFX.OBJ
E:\VS_2010_PROJECTS\KURS_SRV\KURS_SRV\DEBUG\.NETFRAMEWORK,VERSION=V4.0.ASSEMBLYATTRIBUTES.OBJ
C:\WINDOWS\GLOBALIZATION\SORTING\SORTDEFAULT.NLS
E:\VISUAL STUDIO 10.0\VC\BIN\LINK.EXE
C:\WINDOWS\MICROSOFT.NET\FRAMEWORK\V2.0.50727\MSCORWKS.DLL
C:\WINDOWS\MICROSOFT.NET\FRAMEWORK\V4.0.30319\CLR.DLL
E:\VISUAL STUDIO 10.0\VC\BIN\LINK.EXE.CONFIG
E:\VISUAL STUDIO 10.0\VC\LIB\OLDNAMES.LIB
E:\VISUAL STUDIO 10.0\VC\LIB\MSVCURTD.LIB
C:\PROGRAM FILES\MICROSOFT SDKS\WINDOWS\V7.0A\LIB\MSCOREE.LIB
C:\PROGRAM FILES\MICROSOFT SDKS\WINDOWS\V7.0A\LIB\KERNEL32.LIB
C:\PROGRAM FILES\MICROSOFT SDKS\WINDOWS\V7.0A\LIB\UUID.LIB
E:\VISUAL STUDIO 10.0\VC\BIN\CVTRES.EXE
E:\VS_2010_PROJECTS\KURS_SRV\KURS_SRV\DEBUG\KURS_SRV.FRMMAIN.RESOURCES
E:\VS_2010_PROJECTS\KURS_SRV\KURS_SRV\DEBUG\KURS_SRV.FRMTASKTZ.RESOURCES
