^E:\SAPR\SPO_KURS\NTFS_SYSTEM_FILES\NTFS_SYSTEM_FILES\ASSEMBLYINFO.CPP|E:\SAPR\SPO_KURS\NTFS_SYSTEM_FILES\NTFS_SYSTEM_FILES\NTFS_SYSTEM_FILES.CPP
E:\SAPR\SPO_KURS\NTFS_SYSTEM_FILES\NTFS_SYSTEM_FILES\DEBUG\ASSEMBLYINFO.OBJ
^E:\SAPR\SPO_KURS\NTFS_SYSTEM_FILES\NTFS_SYSTEM_FILES\FRMATTRDEF.CPP|E:\SAPR\SPO_KURS\NTFS_SYSTEM_FILES\NTFS_SYSTEM_FILES\FRMBADCLUS.CPP|E:\SAPR\SPO_KURS\NTFS_SYSTEM_FILES\NTFS_SYSTEM_FILES\FRMBITMAP.CPP|E:\SAPR\SPO_KURS\NTFS_SYSTEM_FILES\NTFS_SYSTEM_FILES\FRMBOOT.CPP|E:\SAPR\SPO_KURS\NTFS_SYSTEM_FILES\NTFS_SYSTEM_FILES\FRMLOGFILE.CPP|E:\SAPR\SPO_KURS\NTFS_SYSTEM_FILES\NTFS_SYSTEM_FILES\FRMSECURE.CPP|E:\SAPR\SPO_KURS\NTFS_SYSTEM_FILES\NTFS_SYSTEM_FILES\FRMUPCASE.CPP|E:\SAPR\SPO_KURS\NTFS_SYSTEM_FILES\NTFS_SYSTEM_FILES\FRMVOLUME.CPP|E:\SAPR\SPO_KURS\NTFS_SYSTEM_FILES\NTFS_SYSTEM_FILES\MTFMIRR.CPP|E:\SAPR\SPO_KURS\NTFS_SYSTEM_FILES\NTFS_SYSTEM_FILES\NTFS_SYSTEM_FILES.CPP
E:\SAPR\SPO_KURS\NTFS_SYSTEM_FILES\NTFS_SYSTEM_FILES\DEBUG\FRMVOLUME.OBJ
E:\SAPR\SPO_KURS\NTFS_SYSTEM_FILES\NTFS_SYSTEM_FILES\DEBUG\FRMUPCASE.OBJ
E:\SAPR\SPO_KURS\NTFS_SYSTEM_FILES\NTFS_SYSTEM_FILES\DEBUG\FRMSECURE.OBJ
E:\SAPR\SPO_KURS\NTFS_SYSTEM_FILES\NTFS_SYSTEM_FILES\DEBUG\FRMLOGFILE.OBJ
E:\SAPR\SPO_KURS\NTFS_SYSTEM_FILES\NTFS_SYSTEM_FILES\DEBUG\FRMBOOT.OBJ
E:\SAPR\SPO_KURS\NTFS_SYSTEM_FILES\NTFS_SYSTEM_FILES\DEBUG\FRMBITMAP.OBJ
E:\SAPR\SPO_KURS\NTFS_SYSTEM_FILES\NTFS_SYSTEM_FILES\DEBUG\FRMBADCLUS.OBJ
E:\SAPR\SPO_KURS\NTFS_SYSTEM_FILES\NTFS_SYSTEM_FILES\DEBUG\FRMATTRDEF.OBJ
^E:\SAPR\SPO_KURS\NTFS_SYSTEM_FILES\NTFS_SYSTEM_FILES\FRMMTFMIRR1.CPP|E:\SAPR\SPO_KURS\NTFS_SYSTEM_FILES\NTFS_SYSTEM_FILES\NTFS_SYSTEM_FILES.CPP
E:\SAPR\SPO_KURS\NTFS_SYSTEM_FILES\NTFS_SYSTEM_FILES\DEBUG\FRMMTFMIRR1.OBJ
^E:\SAPR\SPO_KURS\NTFS_SYSTEM_FILES\NTFS_SYSTEM_FILES\FRMMTFMIRR1.CPP
E:\SAPR\SPO_KURS\NTFS_SYSTEM_FILES\NTFS_SYSTEM_FILES\DEBUG\FRMMTFMIRR1.OBJ
^E:\SAPR\SPO_KURS\NTFS_SYSTEM_FILES\NTFS_SYSTEM_FILES\STDAFX.CPP
E:\SAPR\SPO_KURS\NTFS_SYSTEM_FILES\NTFS_SYSTEM_FILES\DEBUG\NTFS_SYSTEM_FILES.PCH
E:\SAPR\SPO_KURS\NTFS_SYSTEM_FILES\NTFS_SYSTEM_FILES\DEBUG\STDAFX.OBJ
E:\SAPR\SPO_KURS\NTFS_SYSTEM_FILES\NTFS_SYSTEM_FILES\DEBUG\VC100.PDB
^E:\SAPR\SPO_KURS\NTFS_SYSTEM_FILES\NTFS_SYSTEM_FILES\ASSEMBLYINFO.CPP|E:\SAPR\SPO_KURS\NTFS_SYSTEM_FILES\NTFS_SYSTEM_FILES\FRMATTRDEF.CPP|E:\SAPR\SPO_KURS\NTFS_SYSTEM_FILES\NTFS_SYSTEM_FILES\FRMBADCLUS.CPP|E:\SAPR\SPO_KURS\NTFS_SYSTEM_FILES\NTFS_SYSTEM_FILES\FRMBITMAP.CPP|E:\SAPR\SPO_KURS\NTFS_SYSTEM_FILES\NTFS_SYSTEM_FILES\FRMBOOT.CPP|E:\SAPR\SPO_KURS\NTFS_SYSTEM_FILES\NTFS_SYSTEM_FILES\FRMLOGFILE.CPP|E:\SAPR\SPO_KURS\NTFS_SYSTEM_FILES\NTFS_SYSTEM_FILES\FRMMFT.CPP|E:\SAPR\SPO_KURS\NTFS_SYSTEM_FILES\NTFS_SYSTEM_FILES\FRMMTFMIRR.CPP|E:\SAPR\SPO_KURS\NTFS_SYSTEM_FILES\NTFS_SYSTEM_FILES\FRMSECURE.CPP|E:\SAPR\SPO_KURS\NTFS_SYSTEM_FILES\NTFS_SYSTEM_FILES\FRMUPCASE.CPP|E:\SAPR\SPO_KURS\NTFS_SYSTEM_FILES\NTFS_SYSTEM_FILES\FRMVOLUME.CPP|E:\SAPR\SPO_KURS\NTFS_SYSTEM_FILES\NTFS_SYSTEM_FILES\NTFS_SYSTEM_FILES.CPP
E:\SAPR\SPO_KURS\NTFS_SYSTEM_FILES\NTFS_SYSTEM_FILES\DEBUG\NTFS_SYSTEM_FILES.OBJ
E:\SAPR\SPO_KURS\NTFS_SYSTEM_FILES\NTFS_SYSTEM_FILES\DEBUG\FRMVOLUME.OBJ
E:\SAPR\SPO_KURS\NTFS_SYSTEM_FILES\NTFS_SYSTEM_FILES\DEBUG\FRMUPCASE.OBJ
E:\SAPR\SPO_KURS\NTFS_SYSTEM_FILES\NTFS_SYSTEM_FILES\DEBUG\FRMSECURE.OBJ
E:\SAPR\SPO_KURS\NTFS_SYSTEM_FILES\NTFS_SYSTEM_FILES\DEBUG\FRMMTFMIRR.OBJ
E:\SAPR\SPO_KURS\NTFS_SYSTEM_FILES\NTFS_SYSTEM_FILES\DEBUG\FRMMFT.OBJ
E:\SAPR\SPO_KURS\NTFS_SYSTEM_FILES\NTFS_SYSTEM_FILES\DEBUG\FRMLOGFILE.OBJ
E:\SAPR\SPO_KURS\NTFS_SYSTEM_FILES\NTFS_SYSTEM_FILES\DEBUG\FRMBOOT.OBJ
E:\SAPR\SPO_KURS\NTFS_SYSTEM_FILES\NTFS_SYSTEM_FILES\DEBUG\FRMBITMAP.OBJ
E:\SAPR\SPO_KURS\NTFS_SYSTEM_FILES\NTFS_SYSTEM_FILES\DEBUG\FRMBADCLUS.OBJ
E:\SAPR\SPO_KURS\NTFS_SYSTEM_FILES\NTFS_SYSTEM_FILES\DEBUG\FRMATTRDEF.OBJ
E:\SAPR\SPO_KURS\NTFS_SYSTEM_FILES\NTFS_SYSTEM_FILES\DEBUG\ASSEMBLYINFO.OBJ
^E:\SAPR\SPO_KURS\NTFS_SYSTEM_FILES\NTFS_SYSTEM_FILES\ASSEMBLYINFO.CPP
E:\SAPR\SPO_KURS\NTFS_SYSTEM_FILES\NTFS_SYSTEM_FILES\DEBUG\VC100.PDB
^E:\SAPR\SPO_KURS\NTFS_SYSTEM_FILES\NTFS_SYSTEM_FILES\FRMLOGFILE.CPP
E:\SAPR\SPO_KURS\NTFS_SYSTEM_FILES\NTFS_SYSTEM_FILES\DEBUG\VC100.PDB
^E:\SAPR\SPO_KURS\NTFS_SYSTEM_FILES\NTFS_SYSTEM_FILES\FRMSECURE.CPP
E:\SAPR\SPO_KURS\NTFS_SYSTEM_FILES\NTFS_SYSTEM_FILES\DEBUG\VC100.PDB
^E:\SAPR\SPO_KURS\NTFS_SYSTEM_FILES\NTFS_SYSTEM_FILES\FRMMFT.CPP|E:\SAPR\SPO_KURS\NTFS_SYSTEM_FILES\NTFS_SYSTEM_FILES\NTFS_SYSTEM_FILES.CPP
E:\SAPR\SPO_KURS\NTFS_SYSTEM_FILES\NTFS_SYSTEM_FILES\DEBUG\FRMMFT.OBJ
E:\SAPR\SPO_KURS\NTFS_SYSTEM_FILES\NTFS_SYSTEM_FILES\DEBUG\NTFS_SYSTEM_FILES.OBJ
^C:\USERS\ARION\APPDATA\LOCAL\TEMP\.NETFRAMEWORK,VERSION=V4.0.ASSEMBLYATTRIBUTES.CPP
E:\SAPR\SPO_KURS\NTFS_SYSTEM_FILES\NTFS_SYSTEM_FILES\DEBUG\.NETFRAMEWORK,VERSION=V4.0.ASSEMBLYATTRIBUTES.OBJ
E:\SAPR\SPO_KURS\NTFS_SYSTEM_FILES\NTFS_SYSTEM_FILES\DEBUG\VC100.PDB
^E:\SAPR\SPO_KURS\NTFS_SYSTEM_FILES\NTFS_SYSTEM_FILES\FRMMFT.CPP|E:\SAPR\SPO_KURS\NTFS_SYSTEM_FILES\NTFS_SYSTEM_FILES\FRMMTFMIRR.CPP|E:\SAPR\SPO_KURS\NTFS_SYSTEM_FILES\NTFS_SYSTEM_FILES\NTFS_SYSTEM_FILES.CPP
E:\SAPR\SPO_KURS\NTFS_SYSTEM_FILES\NTFS_SYSTEM_FILES\DEBUG\FRMMTFMIRR.OBJ
E:\SAPR\SPO_KURS\NTFS_SYSTEM_FILES\NTFS_SYSTEM_FILES\DEBUG\FRMMFT.OBJ
E:\SAPR\SPO_KURS\NTFS_SYSTEM_FILES\NTFS_SYSTEM_FILES\DEBUG\NTFS_SYSTEM_FILES.OBJ
^E:\SAPR\SPO_KURS\NTFS_SYSTEM_FILES\NTFS_SYSTEM_FILES\FRMMFT.CPP
E:\SAPR\SPO_KURS\NTFS_SYSTEM_FILES\NTFS_SYSTEM_FILES\DEBUG\VC100.PDB
^E:\SAPR\SPO_KURS\NTFS_SYSTEM_FILES\NTFS_SYSTEM_FILES\FRMMTFMIRR.CPP|E:\SAPR\SPO_KURS\NTFS_SYSTEM_FILES\NTFS_SYSTEM_FILES\NTFS_SYSTEM_FILES.CPP
E:\SAPR\SPO_KURS\NTFS_SYSTEM_FILES\NTFS_SYSTEM_FILES\DEBUG\FRMMTFMIRR.OBJ
E:\SAPR\SPO_KURS\NTFS_SYSTEM_FILES\NTFS_SYSTEM_FILES\DEBUG\NTFS_SYSTEM_FILES.OBJ
^E:\SAPR\SPO_KURS\NTFS_SYSTEM_FILES\NTFS_SYSTEM_FILES\FRMMTFMIRR.CPP
E:\SAPR\SPO_KURS\NTFS_SYSTEM_FILES\NTFS_SYSTEM_FILES\DEBUG\VC100.PDB
^E:\SAPR\SPO_KURS\NTFS_SYSTEM_FILES\NTFS_SYSTEM_FILES\FRMVOLUME.CPP|E:\SAPR\SPO_KURS\NTFS_SYSTEM_FILES\NTFS_SYSTEM_FILES\NTFS_SYSTEM_FILES.CPP
E:\SAPR\SPO_KURS\NTFS_SYSTEM_FILES\NTFS_SYSTEM_FILES\DEBUG\FRMVOLUME.OBJ
E:\SAPR\SPO_KURS\NTFS_SYSTEM_FILES\NTFS_SYSTEM_FILES\DEBUG\NTFS_SYSTEM_FILES.OBJ
^E:\SAPR\SPO_KURS\NTFS_SYSTEM_FILES\NTFS_SYSTEM_FILES\FRMVOLUME.CPP
E:\SAPR\SPO_KURS\NTFS_SYSTEM_FILES\NTFS_SYSTEM_FILES\DEBUG\VC100.PDB
^E:\SAPR\SPO_KURS\NTFS_SYSTEM_FILES\NTFS_SYSTEM_FILES\FRMBOOT.CPP|E:\SAPR\SPO_KURS\NTFS_SYSTEM_FILES\NTFS_SYSTEM_FILES\NTFS_SYSTEM_FILES.CPP
E:\SAPR\SPO_KURS\NTFS_SYSTEM_FILES\NTFS_SYSTEM_FILES\DEBUG\FRMBOOT.OBJ
E:\SAPR\SPO_KURS\NTFS_SYSTEM_FILES\NTFS_SYSTEM_FILES\DEBUG\NTFS_SYSTEM_FILES.OBJ
^E:\SAPR\SPO_KURS\NTFS_SYSTEM_FILES\NTFS_SYSTEM_FILES\FRMBOOT.CPP
E:\SAPR\SPO_KURS\NTFS_SYSTEM_FILES\NTFS_SYSTEM_FILES\DEBUG\VC100.PDB
^E:\SAPR\SPO_KURS\NTFS_SYSTEM_FILES\NTFS_SYSTEM_FILES\FRMATTRDEF.CPP|E:\SAPR\SPO_KURS\NTFS_SYSTEM_FILES\NTFS_SYSTEM_FILES\FRMBITMAP.CPP|E:\SAPR\SPO_KURS\NTFS_SYSTEM_FILES\NTFS_SYSTEM_FILES\NTFS_SYSTEM_FILES.CPP
E:\SAPR\SPO_KURS\NTFS_SYSTEM_FILES\NTFS_SYSTEM_FILES\DEBUG\FRMBITMAP.OBJ
E:\SAPR\SPO_KURS\NTFS_SYSTEM_FILES\NTFS_SYSTEM_FILES\DEBUG\FRMATTRDEF.OBJ
E:\SAPR\SPO_KURS\NTFS_SYSTEM_FILES\NTFS_SYSTEM_FILES\DEBUG\NTFS_SYSTEM_FILES.OBJ
^E:\SAPR\SPO_KURS\NTFS_SYSTEM_FILES\NTFS_SYSTEM_FILES\FRMBITMAP.CPP|E:\SAPR\SPO_KURS\NTFS_SYSTEM_FILES\NTFS_SYSTEM_FILES\NTFS_SYSTEM_FILES.CPP
E:\SAPR\SPO_KURS\NTFS_SYSTEM_FILES\NTFS_SYSTEM_FILES\DEBUG\FRMBITMAP.OBJ
E:\SAPR\SPO_KURS\NTFS_SYSTEM_FILES\NTFS_SYSTEM_FILES\DEBUG\NTFS_SYSTEM_FILES.OBJ
^E:\SAPR\SPO_KURS\NTFS_SYSTEM_FILES\NTFS_SYSTEM_FILES\FRMBITMAP.CPP
E:\SAPR\SPO_KURS\NTFS_SYSTEM_FILES\NTFS_SYSTEM_FILES\DEBUG\VC100.PDB
^E:\SAPR\SPO_KURS\NTFS_SYSTEM_FILES\NTFS_SYSTEM_FILES\FRMATTRDEF.CPP|E:\SAPR\SPO_KURS\NTFS_SYSTEM_FILES\NTFS_SYSTEM_FILES\NTFS_SYSTEM_FILES.CPP
E:\SAPR\SPO_KURS\NTFS_SYSTEM_FILES\NTFS_SYSTEM_FILES\DEBUG\FRMATTRDEF.OBJ
E:\SAPR\SPO_KURS\NTFS_SYSTEM_FILES\NTFS_SYSTEM_FILES\DEBUG\NTFS_SYSTEM_FILES.OBJ
^E:\SAPR\SPO_KURS\NTFS_SYSTEM_FILES\NTFS_SYSTEM_FILES\FRMATTRDEF.CPP|E:\SAPR\SPO_KURS\NTFS_SYSTEM_FILES\NTFS_SYSTEM_FILES\FRMUPCASE.CPP|E:\SAPR\SPO_KURS\NTFS_SYSTEM_FILES\NTFS_SYSTEM_FILES\NTFS_SYSTEM_FILES.CPP
E:\SAPR\SPO_KURS\NTFS_SYSTEM_FILES\NTFS_SYSTEM_FILES\DEBUG\FRMUPCASE.OBJ
E:\SAPR\SPO_KURS\NTFS_SYSTEM_FILES\NTFS_SYSTEM_FILES\DEBUG\FRMATTRDEF.OBJ
^E:\SAPR\SPO_KURS\NTFS_SYSTEM_FILES\NTFS_SYSTEM_FILES\FRMATTRDEF.CPP
E:\SAPR\SPO_KURS\NTFS_SYSTEM_FILES\NTFS_SYSTEM_FILES\DEBUG\FRMATTRDEF.OBJ
^E:\SAPR\SPO_KURS\NTFS_SYSTEM_FILES\NTFS_SYSTEM_FILES\FRMUPCASE.CPP|E:\SAPR\SPO_KURS\NTFS_SYSTEM_FILES\NTFS_SYSTEM_FILES\NTFS_SYSTEM_FILES.CPP
E:\SAPR\SPO_KURS\NTFS_SYSTEM_FILES\NTFS_SYSTEM_FILES\DEBUG\FRMUPCASE.OBJ
E:\SAPR\SPO_KURS\NTFS_SYSTEM_FILES\NTFS_SYSTEM_FILES\DEBUG\NTFS_SYSTEM_FILES.OBJ
^E:\SAPR\SPO_KURS\NTFS_SYSTEM_FILES\NTFS_SYSTEM_FILES\FRMUPCASE.CPP
E:\SAPR\SPO_KURS\NTFS_SYSTEM_FILES\NTFS_SYSTEM_FILES\DEBUG\VC100.PDB
^E:\SAPR\SPO_KURS\NTFS_SYSTEM_FILES\NTFS_SYSTEM_FILES\FRMBADCLUS.CPP|E:\SAPR\SPO_KURS\NTFS_SYSTEM_FILES\NTFS_SYSTEM_FILES\NTFS_SYSTEM_FILES.CPP
E:\SAPR\SPO_KURS\NTFS_SYSTEM_FILES\NTFS_SYSTEM_FILES\DEBUG\NTFS_SYSTEM_FILES.OBJ
E:\SAPR\SPO_KURS\NTFS_SYSTEM_FILES\NTFS_SYSTEM_FILES\DEBUG\FRMBADCLUS.OBJ
^E:\SAPR\SPO_KURS\NTFS_SYSTEM_FILES\NTFS_SYSTEM_FILES\FRMBADCLUS.CPP
E:\SAPR\SPO_KURS\NTFS_SYSTEM_FILES\NTFS_SYSTEM_FILES\DEBUG\VC100.PDB
^E:\SAPR\SPO_KURS\NTFS_SYSTEM_FILES\NTFS_SYSTEM_FILES\NTFS_SYSTEM_FILES.CPP
E:\SAPR\SPO_KURS\NTFS_SYSTEM_FILES\NTFS_SYSTEM_FILES\DEBUG\NTFS_SYSTEM_FILES.OBJ
E:\SAPR\SPO_KURS\NTFS_SYSTEM_FILES\NTFS_SYSTEM_FILES\DEBUG\VC100.PDB
