^E:\VS_2010_PROJECTS\KURS_SRV\KURS_SRV\RELEASE\.NETFRAMEWORK,VERSION=V4.0.ASSEMBLYATTRIBUTES.OBJ|E:\VS_2010_PROJECTS\KURS_SRV\KURS_SRV\RELEASE\APP.RES|E:\VS_2010_PROJECTS\KURS_SRV\KURS_SRV\RELEASE\ASSEMBLYINFO.OBJ|E:\VS_2010_PROJECTS\KURS_SRV\KURS_SRV\RELEASE\FRMTASKTZ.OBJ|E:\VS_2010_PROJECTS\KURS_SRV\KURS_SRV\RELEASE\FUNCTIONS.OBJ|E:\VS_2010_PROJECTS\KURS_SRV\KURS_SRV\RELEASE\KURS_SRV.OBJ|E:\VS_2010_PROJECTS\KURS_SRV\KURS_SRV\RELEASE\STDAFX.OBJ
E:\VS_2010_PROJECTS\KURS_SRV\RELEASE\KURS_SRV.EXE
E:\VS_2010_PROJECTS\KURS_SRV\KURS_SRV\RELEASE\KURS_SRV.EXE.INTERMEDIATE.MANIFEST
E:\VS_2010_PROJECTS\KURS_SRV\RELEASE\KURS_SRV.PDB
