^E:\VS_2010_PROJECTS\KURS_SRV\KURS_SRV\RELEASE\KURS_SRV.EXE.INTERMEDIATE.MANIFEST
C:\WINDOWS\MICROSOFT.NET\FRAMEWORK\V2.0.50727\MSCORWKS.DLL
C:\WINDOWS\MICROSOFT.NET\FRAMEWORK\V4.0.30319\CLR.DLL
C:\PROGRAM FILES\MICROSOFT SDKS\WINDOWS\V7.0A\BIN\MT.EXE.CONFIG
E:\VS_2010_PROJECTS\KURS_SRV\RELEASE\KURS_SRV.EXE
